display.vcd
$scope module _SevenSegmentDisplay $end
$var wire 5 ! values0 $end
$var wire 5 " values1 $end
$var wire 5 # values2 $end
$var wire 5 $ values3 $end
$var wire 5 % values4 $end
$var wire 5 & values5 $end
$var wire 6 ' cs0 $end
$var wire 7 ( abcdefg0 $end
$var wire 4 ) value $end
$var wire 7 * abcdefg1 $end
$var wire 1 + enable $end
$var wire 1 , ce $end
$var wire 7 - counter $end
$var wire 6 . cs1 $end
$var wire 1 / sys_clk $end
$enddefinitions $end
$dumpvars
$end
#0
b00000 !
b00000 "
b00000 #
b00000 $
b00000 %
b00000 &
b000000 '
b0000000 (
b0000 )
b0000000 *
1+
0,
b0000000 -
b000001 .
0/
b000001 '
b0111111 (
b0111111 *
1,
#5
b00101 &
b000010 '
b0000110 (
b0001 )
b0000110 *
1/
0,
b1100011 -
b000010 .
b00001 "
b00010 #
b00011 $
b00100 %
#10
0/
#15
b00110 &
b1011011 (
b0010 )
b1011011 *
1/
b1100010 -
b00001 !
b00010 "
b00011 #
b00100 $
b00101 %
#20
0/
#25
b00111 &
b1001111 (
b0011 )
b1001111 *
1/
b1100001 -
b00010 !
b00011 "
b00100 #
b00101 $
b00110 %
#30
0/
#35
b01000 &
b1100110 (
b0100 )
b1100110 *
1/
b1100000 -
b00011 !
b00100 "
b00101 #
b00110 $
b00111 %
#40
0/
#45
b01001 &
b1101101 (
b0101 )
b1101101 *
1/
b1011111 -
b00100 !
b00101 "
b00110 #
b00111 $
b01000 %
#50
0/
#55
b01010 &
b1111101 (
b0110 )
b1111101 *
1/
b1011110 -
b00101 !
b00110 "
b00111 #
b01000 $
b01001 %
#60
0/
#65
b01011 &
b0000111 (
b0111 )
b0000111 *
1/
b1011101 -
b00110 !
b00111 "
b01000 #
b01001 $
b01010 %
#70
0/
#75
b01100 &
b1111111 (
b1000 )
b1111111 *
1/
b1011100 -
b00111 !
b01000 "
b01001 #
b01010 $
b01011 %
#80
0/
#85
b01101 &
b1101111 (
b1001 )
b1101111 *
1/
b1011011 -
b01000 !
b01001 "
b01010 #
b01011 $
b01100 %
#90
0/
#95
b01110 &
b1110111 (
b1010 )
b1110111 *
1/
b1011010 -
b01001 !
b01010 "
b01011 #
b01100 $
b01101 %
#100
0/
#105
b01111 &
b1111100 (
b1011 )
b1111100 *
1/
b1011001 -
b01010 !
b01011 "
b01100 #
b01101 $
b01110 %
#110
0/
#115
b10000 &
b0111001 (
b1100 )
b0111001 *
1/
b1011000 -
b01011 !
b01100 "
b01101 #
b01110 $
b01111 %
#120
0/
#125
b10001 &
b1011110 (
b1101 )
b1011110 *
1/
b1010111 -
b01100 !
b01101 "
b01110 #
b01111 $
b10000 %
#130
0/
#135
b10010 &
b1111001 (
b1110 )
b1111001 *
1/
b1010110 -
b01101 !
b01110 "
b01111 #
b10000 $
b10001 %
#140
0/
#145
b10011 &
b1110001 (
b1111 )
b1110001 *
1/
b1010101 -
b01110 !
b01111 "
b10000 #
b10001 $
b10010 %
#150
0/
#155
b10100 &
b0111111 (
b0000 )
b0111111 *
1/
b1010100 -
b01111 !
b10000 "
b10001 #
b10010 $
b10011 %
#160
0/
#165
b10101 &
b0000110 (
b0001 )
b0000110 *
1/
b1010011 -
b10000 !
b10001 "
b10010 #
b10011 $
b10100 %
#170
0/
#175
b10110 &
b1011011 (
b0010 )
b1011011 *
1/
b1010010 -
b10001 !
b10010 "
b10011 #
b10100 $
b10101 %
#180
0/
#185
b10111 &
b1001111 (
b0011 )
b1001111 *
1/
b1010001 -
b10010 !
b10011 "
b10100 #
b10101 $
b10110 %
#190
0/
#195
b11000 &
b1100110 (
b0100 )
b1100110 *
1/
b1010000 -
b10011 !
b10100 "
b10101 #
b10110 $
b10111 %
#200
0/
#205
b11001 &
b1101101 (
b0101 )
b1101101 *
1/
b1001111 -
b10100 !
b10101 "
b10110 #
b10111 $
b11000 %
#210
0/
#215
b11010 &
b1111101 (
b0110 )
b1111101 *
1/
b1001110 -
b10101 !
b10110 "
b10111 #
b11000 $
b11001 %
#220
0/
#225
b11011 &
b0000111 (
b0111 )
b0000111 *
1/
b1001101 -
b10110 !
b10111 "
b11000 #
b11001 $
b11010 %
#230
0/
#235
b11100 &
b1111111 (
b1000 )
b1111111 *
1/
b1001100 -
b10111 !
b11000 "
b11001 #
b11010 $
b11011 %
#240
0/
#245
b11101 &
b1101111 (
b1001 )
b1101111 *
1/
b1001011 -
b11000 !
b11001 "
b11010 #
b11011 $
b11100 %
#250
0/
#255
b11110 &
b1110111 (
b1010 )
b1110111 *
1/
b1001010 -
b11001 !
b11010 "
b11011 #
b11100 $
b11101 %
#260
0/
#265
b11111 &
b1111100 (
b1011 )
b1111100 *
1/
b1001001 -
b11010 !
b11011 "
b11100 #
b11101 $
b11110 %
#270
0/
#275
b00000 &
b0111001 (
b1100 )
b0111001 *
1/
b1001000 -
b11011 !
b11100 "
b11101 #
b11110 $
b11111 %
#280
0/
#285
b00001 &
b1011110 (
b1101 )
b1011110 *
1/
b1000111 -
b11100 !
b11101 "
b11110 #
b11111 $
b00000 %
#290
0/
#295
b00010 &
b1111001 (
b1110 )
b1111001 *
1/
b1000110 -
b11101 !
b11110 "
b11111 #
b00000 $
b00001 %
#300
0/
#305
b00011 &
b1110001 (
b1111 )
b1110001 *
1/
b1000101 -
b11110 !
b11111 "
b00000 #
b00001 $
b00010 %
#310
0/
#315
b00100 &
b0111111 (
b0000 )
b0111111 *
1/
b1000100 -
b11111 !
b00000 "
b00001 #
b00010 $
b00011 %
#320
0/
#325
b00101 &
b0000110 (
b0001 )
b0000110 *
1/
b1000011 -
b00000 !
b00001 "
b00010 #
b00011 $
b00100 %
#330
0/
#335
b00110 &
b1011011 (
b0010 )
b1011011 *
1/
b1000010 -
b00001 !
b00010 "
b00011 #
b00100 $
b00101 %
#340
0/
#345
b00111 &
b1001111 (
b0011 )
b1001111 *
1/
b1000001 -
b00010 !
b00011 "
b00100 #
b00101 $
b00110 %
#350
0/
#355
b01000 &
b1100110 (
b0100 )
b1100110 *
1/
b1000000 -
b00011 !
b00100 "
b00101 #
b00110 $
b00111 %
#360
0/
#365
b01001 &
b1101101 (
b0101 )
b1101101 *
1/
b0111111 -
b00100 !
b00101 "
b00110 #
b00111 $
b01000 %
#370
0/
#375
b01010 &
b1111101 (
b0110 )
b1111101 *
1/
b0111110 -
b00101 !
b00110 "
b00111 #
b01000 $
b01001 %
#380
0/
#385
b01011 &
b0000111 (
b0111 )
b0000111 *
1/
b0111101 -
b00110 !
b00111 "
b01000 #
b01001 $
b01010 %
#390
0/
#395
b01100 &
b1111111 (
b1000 )
b1111111 *
1/
b0111100 -
b00111 !
b01000 "
b01001 #
b01010 $
b01011 %
#400
0/
#405
b01101 &
b1101111 (
b1001 )
b1101111 *
1/
b0111011 -
b01000 !
b01001 "
b01010 #
b01011 $
b01100 %
#410
0/
#415
b01110 &
b1110111 (
b1010 )
b1110111 *
1/
b0111010 -
b01001 !
b01010 "
b01011 #
b01100 $
b01101 %
#420
0/
#425
b01111 &
b1111100 (
b1011 )
b1111100 *
1/
b0111001 -
b01010 !
b01011 "
b01100 #
b01101 $
b01110 %
#430
0/
#435
b10000 &
b0111001 (
b1100 )
b0111001 *
1/
b0111000 -
b01011 !
b01100 "
b01101 #
b01110 $
b01111 %
#440
0/
#445
b10001 &
b1011110 (
b1101 )
b1011110 *
1/
b0110111 -
b01100 !
b01101 "
b01110 #
b01111 $
b10000 %
#450
0/
#455
b10010 &
b1111001 (
b1110 )
b1111001 *
1/
b0110110 -
b01101 !
b01110 "
b01111 #
b10000 $
b10001 %
#460
0/
#465
b10011 &
b1110001 (
b1111 )
b1110001 *
1/
b0110101 -
b01110 !
b01111 "
b10000 #
b10001 $
b10010 %
#470
0/
#475
b10100 &
b0111111 (
b0000 )
b0111111 *
1/
b0110100 -
b01111 !
b10000 "
b10001 #
b10010 $
b10011 %
#480
0/
#485
b10101 &
b0000110 (
b0001 )
b0000110 *
1/
b0110011 -
b10000 !
b10001 "
b10010 #
b10011 $
b10100 %
#490
0/
#495
b10110 &
b1011011 (
b0010 )
b1011011 *
1/
b0110010 -
b10001 !
b10010 "
b10011 #
b10100 $
b10101 %
#500
0/
#505
b10111 &
b1001111 (
b0011 )
b1001111 *
1/
b0110001 -
b10010 !
b10011 "
b10100 #
b10101 $
b10110 %
#510
0/
#515
b11000 &
b1100110 (
b0100 )
b1100110 *
1/
b0110000 -
b10011 !
b10100 "
b10101 #
b10110 $
b10111 %
#520
0/
#525
b11001 &
b1101101 (
b0101 )
b1101101 *
1/
b0101111 -
b10100 !
b10101 "
b10110 #
b10111 $
b11000 %
#530
0/
#535
b11010 &
b1111101 (
b0110 )
b1111101 *
1/
b0101110 -
b10101 !
b10110 "
b10111 #
b11000 $
b11001 %
#540
0/
#545
b11011 &
b0000111 (
b0111 )
b0000111 *
1/
b0101101 -
b10110 !
b10111 "
b11000 #
b11001 $
b11010 %
#550
0/
#555
b11100 &
b1111111 (
b1000 )
b1111111 *
1/
b0101100 -
b10111 !
b11000 "
b11001 #
b11010 $
b11011 %
#560
0/
#565
b11101 &
b1101111 (
b1001 )
b1101111 *
1/
b0101011 -
b11000 !
b11001 "
b11010 #
b11011 $
b11100 %
#570
0/
#575
b11110 &
b1110111 (
b1010 )
b1110111 *
1/
b0101010 -
b11001 !
b11010 "
b11011 #
b11100 $
b11101 %
#580
0/
#585
b11111 &
b1111100 (
b1011 )
b1111100 *
1/
b0101001 -
b11010 !
b11011 "
b11100 #
b11101 $
b11110 %
#590
0/
#595
b00000 &
b0111001 (
b1100 )
b0111001 *
1/
b0101000 -
b11011 !
b11100 "
b11101 #
b11110 $
b11111 %
#600
0/
#605
b00001 &
b1011110 (
b1101 )
b1011110 *
1/
b0100111 -
b11100 !
b11101 "
b11110 #
b11111 $
b00000 %
#610
0/
#615
b00010 &
b1111001 (
b1110 )
b1111001 *
1/
b0100110 -
b11101 !
b11110 "
b11111 #
b00000 $
b00001 %
#620
0/
#625
b00011 &
b1110001 (
b1111 )
b1110001 *
1/
b0100101 -
b11110 !
b11111 "
b00000 #
b00001 $
b00010 %
#630
0/
#635
b00100 &
b0111111 (
b0000 )
b0111111 *
1/
b0100100 -
b11111 !
b00000 "
b00001 #
b00010 $
b00011 %
#640
0/
#645
b00101 &
b0000110 (
b0001 )
b0000110 *
1/
b0100011 -
b00000 !
b00001 "
b00010 #
b00011 $
b00100 %
#650
0/
#655
b00110 &
b1011011 (
b0010 )
b1011011 *
1/
b0100010 -
b00001 !
b00010 "
b00011 #
b00100 $
b00101 %
#660
0/
#665
b00111 &
b1001111 (
b0011 )
b1001111 *
1/
b0100001 -
b00010 !
b00011 "
b00100 #
b00101 $
b00110 %
#670
0/
#675
b01000 &
b1100110 (
b0100 )
b1100110 *
1/
b0100000 -
b00011 !
b00100 "
b00101 #
b00110 $
b00111 %
#680
0/
#685
b01001 &
b1101101 (
b0101 )
b1101101 *
1/
b0011111 -
b00100 !
b00101 "
b00110 #
b00111 $
b01000 %
#690
0/
#695
b01010 &
b1111101 (
b0110 )
b1111101 *
1/
b0011110 -
b00101 !
b00110 "
b00111 #
b01000 $
b01001 %
#700
0/
#705
b01011 &
b0000111 (
b0111 )
b0000111 *
1/
b0011101 -
b00110 !
b00111 "
b01000 #
b01001 $
b01010 %
#710
0/
#715
b01100 &
b1111111 (
b1000 )
b1111111 *
1/
b0011100 -
b00111 !
b01000 "
b01001 #
b01010 $
b01011 %
#720
0/
#725
b01101 &
b1101111 (
b1001 )
b1101111 *
1/
b0011011 -
b01000 !
b01001 "
b01010 #
b01011 $
b01100 %
#730
0/
#735
b01110 &
b1110111 (
b1010 )
b1110111 *
1/
b0011010 -
b01001 !
b01010 "
b01011 #
b01100 $
b01101 %
#740
0/
#745
b01111 &
b1111100 (
b1011 )
b1111100 *
1/
b0011001 -
b01010 !
b01011 "
b01100 #
b01101 $
b01110 %
#750
0/
#755
b10000 &
b0111001 (
b1100 )
b0111001 *
1/
b0011000 -
b01011 !
b01100 "
b01101 #
b01110 $
b01111 %
#760
0/
#765
b10001 &
b1011110 (
b1101 )
b1011110 *
1/
b0010111 -
b01100 !
b01101 "
b01110 #
b01111 $
b10000 %
#770
0/
#775
b10010 &
b1111001 (
b1110 )
b1111001 *
1/
b0010110 -
b01101 !
b01110 "
b01111 #
b10000 $
b10001 %
#780
0/
#785
b10011 &
b1110001 (
b1111 )
b1110001 *
1/
b0010101 -
b01110 !
b01111 "
b10000 #
b10001 $
b10010 %
#790
0/
#795
b10100 &
b0111111 (
b0000 )
b0111111 *
1/
b0010100 -
b01111 !
b10000 "
b10001 #
b10010 $
b10011 %
#800
0/
#805
b10101 &
b0000110 (
b0001 )
b0000110 *
1/
b0010011 -
b10000 !
b10001 "
b10010 #
b10011 $
b10100 %
#810
0/
#815
b10110 &
b1011011 (
b0010 )
b1011011 *
1/
b0010010 -
b10001 !
b10010 "
b10011 #
b10100 $
b10101 %
#820
0/
#825
b10111 &
b1001111 (
b0011 )
b1001111 *
1/
b0010001 -
b10010 !
b10011 "
b10100 #
b10101 $
b10110 %
#830
0/
#835
b11000 &
b1100110 (
b0100 )
b1100110 *
1/
b0010000 -
b10011 !
b10100 "
b10101 #
b10110 $
b10111 %
#840
0/
#845
b11001 &
b1101101 (
b0101 )
b1101101 *
1/
b0001111 -
b10100 !
b10101 "
b10110 #
b10111 $
b11000 %
#850
0/
#855
b11010 &
b1111101 (
b0110 )
b1111101 *
1/
b0001110 -
b10101 !
b10110 "
b10111 #
b11000 $
b11001 %
#860
0/
#865
b11011 &
b0000111 (
b0111 )
b0000111 *
1/
b0001101 -
b10110 !
b10111 "
b11000 #
b11001 $
b11010 %
#870
0/
#875
b11100 &
b1111111 (
b1000 )
b1111111 *
1/
b0001100 -
b10111 !
b11000 "
b11001 #
b11010 $
b11011 %
#880
0/
#885
b11101 &
b1101111 (
b1001 )
b1101111 *
1/
b0001011 -
b11000 !
b11001 "
b11010 #
b11011 $
b11100 %
#890
0/
#895
b11110 &
b1110111 (
b1010 )
b1110111 *
1/
b0001010 -
b11001 !
b11010 "
b11011 #
b11100 $
b11101 %
#900
0/
#905
b11111 &
b1111100 (
b1011 )
b1111100 *
1/
b0001001 -
b11010 !
b11011 "
b11100 #
b11101 $
b11110 %
#910
0/
#915
b00000 &
b0111001 (
b1100 )
b0111001 *
1/
b0001000 -
b11011 !
b11100 "
b11101 #
b11110 $
b11111 %
#920
0/
#925
b00001 &
b1011110 (
b1101 )
b1011110 *
1/
b0000111 -
b11100 !
b11101 "
b11110 #
b11111 $
b00000 %
#930
0/
#935
b00010 &
b1111001 (
b1110 )
b1111001 *
1/
b0000110 -
b11101 !
b11110 "
b11111 #
b00000 $
b00001 %
#940
0/
#945
b00011 &
b1110001 (
b1111 )
b1110001 *
1/
b0000101 -
b11110 !
b11111 "
b00000 #
b00001 $
b00010 %
#950
0/
#955
b00100 &
b0111111 (
b0000 )
b0111111 *
1/
b0000100 -
b11111 !
b00000 "
b00001 #
b00010 $
b00011 %
#960
0/
#965
b00101 &
b0000110 (
b0001 )
b0000110 *
1/
b0000011 -
b00000 !
b00001 "
b00010 #
b00011 $
b00100 %
#970
0/
#975
b00110 &
b1011011 (
b0010 )
b1011011 *
1/
b0000010 -
b00001 !
b00010 "
b00011 #
b00100 $
b00101 %
#980
0/
#985
b00111 &
b1001111 (
b0011 )
b1001111 *
1/
b0000001 -
b00010 !
b00011 "
b00100 #
b00101 $
b00110 %
#990
0/
#995
b01000 &
b1100110 (
b0100 )
b1100110 *
1/
1,
b0000000 -
b00011 !
b00100 "
b00101 #
b00110 $
b00111 %
#1000
0/
#1005
b01001 &
b000100 '
b1111101 (
b0110 )
b1111101 *
1/
0,
b1100011 -
b00100 !
b000100 .
b00101 "
b00110 #
b00111 $
b01000 %
#1010
0/
#1015
b01010 &
b0000111 (
b0111 )
b0000111 *
1/
b1100010 -
b00101 !
b00110 "
b00111 #
b01000 $
b01001 %
#1020
0/
#1025
b01011 &
b1111111 (
b1000 )
b1111111 *
1/
b1100001 -
b00110 !
b00111 "
b01000 #
b01001 $
b01010 %
#1030
0/
#1035
b01100 &
b1101111 (
b1001 )
b1101111 *
1/
b1100000 -
b00111 !
b01000 "
b01001 #
b01010 $
b01011 %
#1040
0/
#1045
b01101 &
b1110111 (
b1010 )
b1110111 *
1/
b1011111 -
b01000 !
b01001 "
b01010 #
b01011 $
b01100 %
#1050
0/
#1055
b01110 &
b1111100 (
b1011 )
b1111100 *
1/
b1011110 -
b01001 !
b01010 "
b01011 #
b01100 $
b01101 %
#1060
0/
#1065
b01111 &
b0111001 (
b1100 )
b0111001 *
1/
b1011101 -
b01010 !
b01011 "
b01100 #
b01101 $
b01110 %
#1070
0/
#1075
b10000 &
b1011110 (
b1101 )
b1011110 *
1/
b1011100 -
b01011 !
b01100 "
b01101 #
b01110 $
b01111 %
#1080
0/
#1085
b10001 &
b1111001 (
b1110 )
b1111001 *
1/
b1011011 -
b01100 !
b01101 "
b01110 #
b01111 $
b10000 %
#1090
0/
#1095
b10010 &
b1110001 (
b1111 )
b1110001 *
1/
b1011010 -
b01101 !
b01110 "
b01111 #
b10000 $
b10001 %
#1100
0/
#1105
b10011 &
b0111111 (
b0000 )
b0111111 *
1/
b1011001 -
b01110 !
b01111 "
b10000 #
b10001 $
b10010 %
#1110
0/
#1115
b10100 &
b0000110 (
b0001 )
b0000110 *
1/
b1011000 -
b01111 !
b10000 "
b10001 #
b10010 $
b10011 %
#1120
0/
#1125
b10101 &
b1011011 (
b0010 )
b1011011 *
1/
b1010111 -
b10000 !
b10001 "
b10010 #
b10011 $
b10100 %
#1130
0/
#1135
b10110 &
b1001111 (
b0011 )
b1001111 *
1/
b1010110 -
b10001 !
b10010 "
b10011 #
b10100 $
b10101 %
#1140
0/
#1145
b10111 &
b1100110 (
b0100 )
b1100110 *
1/
b1010101 -
b10010 !
b10011 "
b10100 #
b10101 $
b10110 %
#1150
0/
#1155
b11000 &
b1101101 (
b0101 )
b1101101 *
1/
b1010100 -
b10011 !
b10100 "
b10101 #
b10110 $
b10111 %
#1160
0/
#1165
b11001 &
b1111101 (
b0110 )
b1111101 *
1/
b1010011 -
b10100 !
b10101 "
b10110 #
b10111 $
b11000 %
#1170
0/
#1175
b11010 &
b0000111 (
b0111 )
b0000111 *
1/
b1010010 -
b10101 !
b10110 "
b10111 #
b11000 $
b11001 %
#1180
0/
#1185
b11011 &
b1111111 (
b1000 )
b1111111 *
1/
b1010001 -
b10110 !
b10111 "
b11000 #
b11001 $
b11010 %
#1190
0/
#1195
b11100 &
b1101111 (
b1001 )
b1101111 *
1/
b1010000 -
b10111 !
b11000 "
b11001 #
b11010 $
b11011 %
#1200
0/
#1205
b11101 &
b1110111 (
b1010 )
b1110111 *
1/
b1001111 -
b11000 !
b11001 "
b11010 #
b11011 $
b11100 %
#1210
0/
#1215
b11110 &
b1111100 (
b1011 )
b1111100 *
1/
b1001110 -
b11001 !
b11010 "
b11011 #
b11100 $
b11101 %
#1220
0/
#1225
b11111 &
b0111001 (
b1100 )
b0111001 *
1/
b1001101 -
b11010 !
b11011 "
b11100 #
b11101 $
b11110 %
#1230
0/
#1235
b00000 &
b1011110 (
b1101 )
b1011110 *
1/
b1001100 -
b11011 !
b11100 "
b11101 #
b11110 $
b11111 %
#1240
0/
#1245
b00001 &
b1111001 (
b1110 )
b1111001 *
1/
b1001011 -
b11100 !
b11101 "
b11110 #
b11111 $
b00000 %
#1250
0/
#1255
b00010 &
b1110001 (
b1111 )
b1110001 *
1/
b1001010 -
b11101 !
b11110 "
b11111 #
b00000 $
b00001 %
#1260
0/
#1265
b00011 &
b0111111 (
b0000 )
b0111111 *
1/
b1001001 -
b11110 !
b11111 "
b00000 #
b00001 $
b00010 %
#1270
0/
#1275
b00100 &
b0000110 (
b0001 )
b0000110 *
1/
b1001000 -
b11111 !
b00000 "
b00001 #
b00010 $
b00011 %
#1280
0/
#1285
b00101 &
b1011011 (
b0010 )
b1011011 *
1/
b1000111 -
b00000 !
b00001 "
b00010 #
b00011 $
b00100 %
#1290
0/
#1295
b00110 &
b1001111 (
b0011 )
b1001111 *
1/
b1000110 -
b00001 !
b00010 "
b00011 #
b00100 $
b00101 %
#1300
0/
#1305
b00111 &
b1100110 (
b0100 )
b1100110 *
1/
b1000101 -
b00010 !
b00011 "
b00100 #
b00101 $
b00110 %
#1310
0/
#1315
b01000 &
b1101101 (
b0101 )
b1101101 *
1/
b1000100 -
b00011 !
b00100 "
b00101 #
b00110 $
b00111 %
#1320
0/
#1325
b01001 &
b1111101 (
b0110 )
b1111101 *
1/
b1000011 -
b00100 !
b00101 "
b00110 #
b00111 $
b01000 %
#1330
0/
#1335
b01010 &
b0000111 (
b0111 )
b0000111 *
1/
b1000010 -
b00101 !
b00110 "
b00111 #
b01000 $
b01001 %
#1340
0/
#1345
b01011 &
b1111111 (
b1000 )
b1111111 *
1/
b1000001 -
b00110 !
b00111 "
b01000 #
b01001 $
b01010 %
#1350
0/
#1355
b01100 &
b1101111 (
b1001 )
b1101111 *
1/
b1000000 -
b00111 !
b01000 "
b01001 #
b01010 $
b01011 %
#1360
0/
#1365
b01101 &
b1110111 (
b1010 )
b1110111 *
1/
b0111111 -
b01000 !
b01001 "
b01010 #
b01011 $
b01100 %
#1370
0/
#1375
b01110 &
b1111100 (
b1011 )
b1111100 *
1/
b0111110 -
b01001 !
b01010 "
b01011 #
b01100 $
b01101 %
#1380
0/
#1385
b01111 &
b0111001 (
b1100 )
b0111001 *
1/
b0111101 -
b01010 !
b01011 "
b01100 #
b01101 $
b01110 %
#1390
0/
#1395
b10000 &
b1011110 (
b1101 )
b1011110 *
1/
b0111100 -
b01011 !
b01100 "
b01101 #
b01110 $
b01111 %
#1400
0/
#1405
b10001 &
b1111001 (
b1110 )
b1111001 *
1/
b0111011 -
b01100 !
b01101 "
b01110 #
b01111 $
b10000 %
#1410
0/
#1415
b10010 &
b1110001 (
b1111 )
b1110001 *
1/
b0111010 -
b01101 !
b01110 "
b01111 #
b10000 $
b10001 %
#1420
0/
#1425
b10011 &
b0111111 (
b0000 )
b0111111 *
1/
b0111001 -
b01110 !
b01111 "
b10000 #
b10001 $
b10010 %
#1430
0/
#1435
b10100 &
b0000110 (
b0001 )
b0000110 *
1/
b0111000 -
b01111 !
b10000 "
b10001 #
b10010 $
b10011 %
#1440
0/
#1445
b10101 &
b1011011 (
b0010 )
b1011011 *
1/
b0110111 -
b10000 !
b10001 "
b10010 #
b10011 $
b10100 %
#1450
0/
#1455
b10110 &
b1001111 (
b0011 )
b1001111 *
1/
b0110110 -
b10001 !
b10010 "
b10011 #
b10100 $
b10101 %
#1460
0/
#1465
b10111 &
b1100110 (
b0100 )
b1100110 *
1/
b0110101 -
b10010 !
b10011 "
b10100 #
b10101 $
b10110 %
#1470
0/
#1475
b11000 &
b1101101 (
b0101 )
b1101101 *
1/
b0110100 -
b10011 !
b10100 "
b10101 #
b10110 $
b10111 %
#1480
0/
#1485
b11001 &
b1111101 (
b0110 )
b1111101 *
1/
b0110011 -
b10100 !
b10101 "
b10110 #
b10111 $
b11000 %
#1490
0/
#1495
b11010 &
b0000111 (
b0111 )
b0000111 *
1/
b0110010 -
b10101 !
b10110 "
b10111 #
b11000 $
b11001 %
#1500
0/
#1505
b11011 &
b1111111 (
b1000 )
b1111111 *
1/
b0110001 -
b10110 !
b10111 "
b11000 #
b11001 $
b11010 %
#1510
0/
#1515
b11100 &
b1101111 (
b1001 )
b1101111 *
1/
b0110000 -
b10111 !
b11000 "
b11001 #
b11010 $
b11011 %
#1520
0/
#1525
b11101 &
b1110111 (
b1010 )
b1110111 *
1/
b0101111 -
b11000 !
b11001 "
b11010 #
b11011 $
b11100 %
#1530
0/
#1535
b11110 &
b1111100 (
b1011 )
b1111100 *
1/
b0101110 -
b11001 !
b11010 "
b11011 #
b11100 $
b11101 %
#1540
0/
#1545
b11111 &
b0111001 (
b1100 )
b0111001 *
1/
b0101101 -
b11010 !
b11011 "
b11100 #
b11101 $
b11110 %
#1550
0/
#1555
b00000 &
b1011110 (
b1101 )
b1011110 *
1/
b0101100 -
b11011 !
b11100 "
b11101 #
b11110 $
b11111 %
#1560
0/
#1565
b00001 &
b1111001 (
b1110 )
b1111001 *
1/
b0101011 -
b11100 !
b11101 "
b11110 #
b11111 $
b00000 %
#1570
0/
#1575
b00010 &
b1110001 (
b1111 )
b1110001 *
1/
b0101010 -
b11101 !
b11110 "
b11111 #
b00000 $
b00001 %
#1580
0/
#1585
b00011 &
b0111111 (
b0000 )
b0111111 *
1/
b0101001 -
b11110 !
b11111 "
b00000 #
b00001 $
b00010 %
#1590
0/
#1595
b00100 &
b0000110 (
b0001 )
b0000110 *
1/
b0101000 -
b11111 !
b00000 "
b00001 #
b00010 $
b00011 %
#1600
0/
#1605
b00101 &
b1011011 (
b0010 )
b1011011 *
1/
b0100111 -
b00000 !
b00001 "
b00010 #
b00011 $
b00100 %
#1610
0/
#1615
b00110 &
b1001111 (
b0011 )
b1001111 *
1/
b0100110 -
b00001 !
b00010 "
b00011 #
b00100 $
b00101 %
#1620
0/
#1625
b00111 &
b1100110 (
b0100 )
b1100110 *
1/
b0100101 -
b00010 !
b00011 "
b00100 #
b00101 $
b00110 %
#1630
0/
#1635
b01000 &
b1101101 (
b0101 )
b1101101 *
1/
b0100100 -
b00011 !
b00100 "
b00101 #
b00110 $
b00111 %
#1640
0/
#1645
b01001 &
b1111101 (
b0110 )
b1111101 *
1/
b0100011 -
b00100 !
b00101 "
b00110 #
b00111 $
b01000 %
#1650
0/
#1655
b01010 &
b0000111 (
b0111 )
b0000111 *
1/
b0100010 -
b00101 !
b00110 "
b00111 #
b01000 $
b01001 %
#1660
0/
#1665
b01011 &
b1111111 (
b1000 )
b1111111 *
1/
b0100001 -
b00110 !
b00111 "
b01000 #
b01001 $
b01010 %
#1670
0/
#1675
b01100 &
b1101111 (
b1001 )
b1101111 *
1/
b0100000 -
b00111 !
b01000 "
b01001 #
b01010 $
b01011 %
#1680
0/
#1685
b01101 &
b1110111 (
b1010 )
b1110111 *
1/
b0011111 -
b01000 !
b01001 "
b01010 #
b01011 $
b01100 %
#1690
0/
#1695
b01110 &
b1111100 (
b1011 )
b1111100 *
1/
b0011110 -
b01001 !
b01010 "
b01011 #
b01100 $
b01101 %
#1700
0/
#1705
b01111 &
b0111001 (
b1100 )
b0111001 *
1/
b0011101 -
b01010 !
b01011 "
b01100 #
b01101 $
b01110 %
#1710
0/
#1715
b10000 &
b1011110 (
b1101 )
b1011110 *
1/
b0011100 -
b01011 !
b01100 "
b01101 #
b01110 $
b01111 %
#1720
0/
#1725
b10001 &
b1111001 (
b1110 )
b1111001 *
1/
b0011011 -
b01100 !
b01101 "
b01110 #
b01111 $
b10000 %
#1730
0/
#1735
b10010 &
b1110001 (
b1111 )
b1110001 *
1/
b0011010 -
b01101 !
b01110 "
b01111 #
b10000 $
b10001 %
#1740
0/
#1745
b10011 &
b0111111 (
b0000 )
b0111111 *
1/
b0011001 -
b01110 !
b01111 "
b10000 #
b10001 $
b10010 %
#1750
0/
#1755
b10100 &
b0000110 (
b0001 )
b0000110 *
1/
b0011000 -
b01111 !
b10000 "
b10001 #
b10010 $
b10011 %
#1760
0/
#1765
b10101 &
b1011011 (
b0010 )
b1011011 *
1/
b0010111 -
b10000 !
b10001 "
b10010 #
b10011 $
b10100 %
#1770
0/
#1775
b10110 &
b1001111 (
b0011 )
b1001111 *
1/
b0010110 -
b10001 !
b10010 "
b10011 #
b10100 $
b10101 %
#1780
0/
#1785
b10111 &
b1100110 (
b0100 )
b1100110 *
1/
b0010101 -
b10010 !
b10011 "
b10100 #
b10101 $
b10110 %
#1790
0/
#1795
b11000 &
b1101101 (
b0101 )
b1101101 *
1/
b0010100 -
b10011 !
b10100 "
b10101 #
b10110 $
b10111 %
#1800
0/
#1805
b11001 &
b1111101 (
b0110 )
b1111101 *
1/
b0010011 -
b10100 !
b10101 "
b10110 #
b10111 $
b11000 %
#1810
0/
#1815
b11010 &
b0000111 (
b0111 )
b0000111 *
1/
b0010010 -
b10101 !
b10110 "
b10111 #
b11000 $
b11001 %
#1820
0/
#1825
b11011 &
b1111111 (
b1000 )
b1111111 *
1/
b0010001 -
b10110 !
b10111 "
b11000 #
b11001 $
b11010 %
#1830
0/
#1835
b11100 &
b1101111 (
b1001 )
b1101111 *
1/
b0010000 -
b10111 !
b11000 "
b11001 #
b11010 $
b11011 %
#1840
0/
#1845
b11101 &
b1110111 (
b1010 )
b1110111 *
1/
b0001111 -
b11000 !
b11001 "
b11010 #
b11011 $
b11100 %
#1850
0/
#1855
b11110 &
b1111100 (
b1011 )
b1111100 *
1/
b0001110 -
b11001 !
b11010 "
b11011 #
b11100 $
b11101 %
#1860
0/
#1865
b11111 &
b0111001 (
b1100 )
b0111001 *
1/
b0001101 -
b11010 !
b11011 "
b11100 #
b11101 $
b11110 %
#1870
0/
#1875
b00000 &
b1011110 (
b1101 )
b1011110 *
1/
b0001100 -
b11011 !
b11100 "
b11101 #
b11110 $
b11111 %
#1880
0/
#1885
b00001 &
b1111001 (
b1110 )
b1111001 *
1/
b0001011 -
b11100 !
b11101 "
b11110 #
b11111 $
b00000 %
#1890
0/
#1895
b00010 &
b1110001 (
b1111 )
b1110001 *
1/
b0001010 -
b11101 !
b11110 "
b11111 #
b00000 $
b00001 %
#1900
0/
#1905
b00011 &
b0111111 (
b0000 )
b0111111 *
1/
b0001001 -
b11110 !
b11111 "
b00000 #
b00001 $
b00010 %
#1910
0/
#1915
b00100 &
b0000110 (
b0001 )
b0000110 *
1/
b0001000 -
b11111 !
b00000 "
b00001 #
b00010 $
b00011 %
#1920
0/
